082b68cf-ebad-420d-b4b9-bf33aafc7394|Сирин|Имамов|sirin3002imamov@gmail.com|qwerty001
e9f2f383-5951-4de9-8a49-d407dc87474c|Сирин|Имамов|sirin3002imamov@gmail.com|qwerty001
4ebccfb7-3515-4c15-913b-e81dd8e33394|Виталий|Комиссаров|vk133081@gmail.com|qwerty008
710c9aef-81f1-44ac-8499-cdbdb038df52|Сирин|Имамов|sirin3002imamov@gmail.com|qwerty001
